﻿{
  "sidebarMenu": [
    {
      "controller": "Home",
      "action": "Index",
      "icon": "fa fa-th-large",
      "text": "Home"
    },
    {
      "icon": "fa fa-align-left",
      "text": "Menu Level",
      "children": [
      	{
          "text": "Menu 1.1",
          "children": [
          	{
          		"text": "Menu 2.1",
          		"children": [
								{
									"text": "Menu 3.1"
								},
								{
									"text": "Menu 3.2"
								},
								{
									"text": "Menu 3.3"
								}
							]
          	},
						{
							"text": "Menu 2.2"
						},
						{
							"text": "Menu 2.3"
						}
          ]
        },
      	{
          "text": "Menu 1.2"
        },
      	{
          "text": "Menu 1.3"
        }
      ]
    }
  ]
}